<?xml version="1.0" encoding="UTF-8"?>
<svg width="60px" height="46px" viewBox="0 0 60 46" version="1.1" xmlns="http://www.w3.org/2000/svg" xmlns:xlink="http://www.w3.org/1999/xlink">
    <!-- Generator: Sketch 42 (36781) - http://www.bohemiancoding.com/sketch -->
    <title>icon-horizontal</title>
    <desc>Created with Sketch.</desc>
    <defs></defs>
    <g id="Visualize" stroke="none" stroke-width="1" fill="none" fill-rule="evenodd">
        <g id="Visualize-Create-New" transform="translate(-116.000000, -222.000000)">
            <g id="charts" transform="translate(75.000000, 148.000000)">
                <g id="horiz" transform="translate(1.000000, 43.000000)">
                    <g id="icon-horizontal" transform="translate(40.000000, 31.000000)">
                        <g id="Group" transform="translate(28.508538, 20.666199) rotate(90.000000) translate(-28.508538, -20.666199) translate(13.508538, 0.166199)">
                            <polygon fill="#FAB92F" id="Path" points="29.3338013 0.0085375309 29.3338013 40.0085375 22.3338013 40.0085375 22.3338013 0.0085375309"></polygon>
                            <polygon fill="#EB0C0C" id="Path" points="18.3338013 14.0085375 18.3338013 40.0085375 11.3338013 40.0085375 11.3338013 14.0085375"></polygon>
                            <polygon fill="#5CB09E" id="Path" points="7.33380127 4.00853753 7.33380127 40.0085375 0.33380127 40.0085375 0.33380127 4.00853753"></polygon>
                        </g>
                        <polygon fill="#0c4770" id="xy-axis" fill-rule="nonzero" points="4 0 0 0 0 45.0116263 60.0000011 45.0116263 60.0000011 41.0116263 4 41.0116263"></polygon>
                    </g>
                </g>
            </g>
        </g>
    </g>
</svg>